<svg xmlns="http://www.w3.org/2000/svg" width="23" height="31" viewBox="0 0 23 31">

	<path fill="#FFFFFF" d="M11.5,0C5.2,0,0,4.5,0,11.3S5.7,20.8,8.9,25c2.6,3.4,2.6,6,2.6,6s0.1-2.6,2.6-6c3.1-4.2,8.9-7.1,8.9-13.7
		C23,4.5,17.9,0,11.5,0z"/>
	<path fill="#2E8B57" d="M11.5,0C5.2,0,0,4.5,0,11.3S5.7,20.8,8.9,25c2.6,3.4,2.6,6,2.6,6s0.1-2.6,2.6-6c3.1-4.2,8.9-7.1,8.9-13.7
		C23,4.5,17.9,0,11.5,0z M13.4,21.5c-1.9,2.6-1.9,3.5-1.9,3.5s0-0.9-1.9-3.5C7.2,18.4,3,16.4,3,11.4C2.9,6.8,6.5,3.1,11,3
		c0.2,0,0.3,0,0.5,0c4.5-0.2,8.3,3.4,8.5,7.9c0,0.2,0,0.3,0,0.5C20,16.3,15.7,18.4,13.4,21.5z M16,11.5c0,2.5-2,4.5-4.5,4.5
		S7,14,7,11.5S9,7,11.5,7S16,9,16,11.5L16,11.5z"/>
</svg>
