<svg xmlns="http://www.w3.org/2000/svg" width="23" height="23" viewBox="0 0 23 23">
<path fill="#FFFFFF" d="M11.5,0C5.1,0,0,5.1,0,11.5S5.1,23,11.5,23S23,17.9,23,11.5S17.9,0,11.5,0z"/>
<path fill="#4682B4" d="M11.5,0C5.1,0,0,5.1,0,11.5S5.1,23,11.5,23S23,17.9,23,11.5S17.9,0,11.5,0z M11.5,20C6.8,20,3,16.2,3,11.5
	S6.8,3,11.5,3S20,6.8,20,11.5S16.2,20,11.5,20z M16,11.5c0,2.5-2,4.5-4.5,4.5S7,14,7,11.5S9,7,11.5,7S16,9,16,11.5L16,11.5z"/>
</svg>
